Applied Machine Learning - Basic Principles
…
.pull-left[

```r
# Predict on the same data you train with
repredicted <- fit_knn %>%
  predict(new_data = ames_train_log) %>%
  bind_cols(ames_train_log) %>%
  dplyr::select(.pred, Sale_Price_Log)

repredicted
```

```
## # A tibble: 2,199 x 2
##    .pred Sale_Price_Log
##    <dbl>          <dbl>
##  1  5.31           5.33
##  2  5.28           5.28
##  3  5.29           5.29
##  4  5.28           5.28
##  5  5.38           5.37
##  6  5.27           5.28
##  7  5.24           5.25
##  8  5.22           5.23
##  9  5.32           5.33
## 10  5.18           5.21
## # … with 2,189 more rows
```
…
.pull-left[

```r
param_grid <- 
  param_grid %>%
  mutate(
    specs = merge(., spec_knn_varying)
  )

print(param_grid, n = 4)
```

```
## # A tibble: 20 x 2
##   neighbors specs    
## *     <int> <list>   
## 1         1 <spec[+]>
## 2         2 <spec[+]>
## 3         3 <spec[+]>
## 4         4 <spec[+]>
## # … with 16 more rows
```
…
]

.pull-right[

```r
fit_all_specs_one_split(
  cv_splits$splits[[1]], 
  param_grid
) %>%
  print(n = 5)
```

```
## # A tibble: 20 x 3
##   neighbors specs       rmse
## *     <int> <list>     <dbl>
## 1         1 <spec[+]> 0.106 
## 2         2 <spec[+]> 0.0955
## 3         3 <spec[+]> 0.0912
## 4         4 <spec[+]> 0.0898
## 5         5 <spec[+]> 0.0887
## # … with 15 more rows
```
…
