…
    ## # A tibble: 28 x 6
    ##    col_1            col_2          corr  p_value   lower  upper
    ##    <chr>            <chr>         <dbl>    <dbl>   <dbl>  <dbl>
    ##  1 usd_pledged_real pledged     0.957   0        0.956   0.957 
    ##  2 usd_goal_real    goal        0.943   0        0.943   0.944 
    ##  3 usd_pledged_real usd.pledged 0.914   0        0.913   0.915 
    ##  4 usd.pledged      pledged     0.869   0        0.868   0.871 
    ##  5 usd_pledged_real backers     0.799   0        0.797   0.801 
    ##  6 backers          pledged     0.764   0        0.762   0.766 
    ##  7 usd.pledged      backers     0.753   0        0.750   0.755 
    ##  8 pledged          goal        0.00822 0.000345 0.00307 0.0134
    ##  9 usd_goal_real    usd.pledged 0.00738 0.00139  0.00220 0.0126
    ## 10 usd.pledged      goal        0.00712 0.00206  0.00194 0.0123
    ## # … with 18 more rows
…
